 6574.41818357441844
 5761.82411972352020
 5082.86467463604185
 4521.12416901529559
 4063.58368214566144
 3685.97868979487384
 3365.76261342705311
 3093.13243818435285
 2854.59432306912595
 2644.49249328762698
 2457.56044918269663
 2289.21317486345151
 2137.68733973088320
 1999.66444885482338
 1873.98589924838620
 1758.95005061639017
 1653.22006941361292
 1555.77170083011970
 1465.67105959629453
 1382.25905343467230
 1304.73180642881880
 1232.33565159864906
 1164.61194981355834
 1101.08372570350798
 1041.38174337827331
 985.123366407188087
 932.102614891618373
 882.255235853798808
 835.415688077169762
 791.412002869605658
 749.969544488470092
 710.904503739016491
 673.987651673266328
 639.148015543262204
 606.288491651852837
 575.386751440088233
 546.336990046330016
 518.974230108394750
 492.961643233589598
 467.985646314894041
 443.745693770917683
 420.240760811461371
 397.566513470602445
 375.837215940811461
 355.103902661393192
 335.480778229094653
 317.027635174290481
 299.678181410738205
 283.159469745787248
 267.201466274652489
 251.680988135005407
 236.677761060618252
 222.289490953781922
 208.560652405410593
 195.547786453009223
 183.346657212477965
 171.972908578474147
 161.333775577798576
 151.304763489311199
 141.802129798979365
 132.759299238821853
 124.063230206271498
 115.566359231928431
 107.089844082239267
 98.4973107919454947
 89.8352031468257621
 81.3053919521268966
 73.0994392678587275
 65.3404329616076751
 58.0970803541721068
 51.3990340944266819
 45.1808449769055329
 39.2711990630751728
 33.4863591170715438
 27.7268503751504518
 21.9522503421618325
 16.1793279626921453
 10.5117691824558790
 5.09825758382475502
 0.703233632140655013E-01
 -4.48059655485715336
 -8.58039663894363791
 -12.3380721195158785
 -15.8577025291513145
 -19.2283768298909337
 -22.4815761676554047
 -25.5642049040209685
 -28.4191318859974942
 -31.0302452221741483
 -33.4104404013608587
 -35.6140546517922161
 -37.7748292770776573
 -40.0161112129225813
 -42.3218436624898970
 -44.5805587649719541
 -46.6800512883243499
 -48.5952809479586065
 -50.4033217189036193
 -52.1270834807217085
 -53.7101232777012925
 -55.1030002250933109
 -56.2655082991906852
 -57.2075160737309218
 -58.0012946733469406
 -58.7555661453241598
 -59.6339015821262350
 -60.7841246932062447
 -62.2582037807043847
 -64.0396148681214896
 -66.1090183102567295
 -68.4722031666620836
 -71.1264873206975494
 -74.0253413228538619
 -77.0749552233066311
 -80.1114166076371106
 -82.9678349425468724
 -85.5872944967360354
 -87.9816987706147273
 -90.0933087264642296
 -91.7943050718431692
 -93.0523557403483892
 -93.9713473303813061
 -94.6693518076302780
 -95.2080622239478913
 -95.5716940697395216
 -95.6852880063113247
 -95.4655656433927930
 -94.8573454288981566
 -93.8823918267478490
 -92.6168550201863923
 -91.0826257298516424
 -89.2305725121080116
 -87.0205886456308804
 -84.4819515138738950
 -81.7218116447352969
 -78.8719471961650243
 -76.0360769160762686
 -73.2974086444365156
 -70.7109736461037812
 -68.3199076806213554
 -66.2162723075856263
 -64.4783575049805648
 -63.0763515965713921
 -61.9190921395144827
 -60.9259257553343190
 -60.0594712906412553
 -59.3368635818236569
 -58.7488858604163156
 -58.1855656035175102
 -57.4872710296746732
 -56.5052887464215203
 -55.1490675511558806
 -53.4404693608970263
 -51.4587767878172073
 -49.2872883322247830
 -47.0393946177549935
 -44.8229206074386965
 -42.6717632355805492
 -40.5366554559909744
 -38.3530191676570595
 -36.1508420679853941
 -33.9992719612279188
 -31.8466365691483091
 -29.5665974065269630
 -27.0692277581069405
 -24.3176058272804383
 -21.3240041470126975
 -18.0659767335484815
 -14.4755744093521344
 -10.5254745782540642
 -6.22034131731685935
 -1.57729487648052658
 3.42081425786965454
 8.80048307620740822
 14.4915950678063155
 20.3886091927794482
 26.4294581607381254
 32.6253844893868177
 39.0757089085260318
 45.8703035502203278
 53.0597737686941784
 60.6862159378896138
 68.7537808197956650
 77.2590431888481390
 86.1892762791875242
 95.4479791330812759
 104.889325411318410
 114.411564794155098
 123.971223644064139
 133.599762692411872
 143.435916081449108
 153.690835950041617
 164.549952734481963
 176.095858070012412
 188.358708814444981
 201.409643571310397
 215.282247492105625
 229.915709708972201
 245.253844966232805
 261.272225454301122
 277.950060878753050
 295.308172982394126
 313.445917696022434
 332.476864724244138
 352.476561053611817
 373.530560213328101
 395.798436607562223
 419.422513846947822
 444.442380596462328
 470.744116396389245
 498.150850513257524
 526.551684296086933
 555.937564222939045
 586.410600123320364
 618.265132241063952
 651.919424216837569
 687.775899207310772
 726.098768451164688
 767.043218702869353
 810.704054701340510
 857.168686904855690
 906.543553865160106
 959.011018502149909
 1014.86420922761170
 1074.46995213223272
 1138.18971403561022
 1206.32181941085696
 1279.16489789906154
 1356.93876602830414
 1439.97490726802994
 1528.81595893625649
 1624.24833574255217
 1727.14561186741093
 1838.39869250719607
 1958.93537571981483
 2089.98799394441494
 2232.59058038061357
 2388.20850067848551
 2558.33737742982066
 2745.13094447461799
 2950.73813543224924
 3177.36258260178465
 3427.77658865883996
 3704.79693168013773
 4011.72886449803718
 4352.23578953293963
 4729.15383710962033
 5145.99287069191996
 5602.07414812508068
 6094.39420116387737
 6609.32691954521306
 7116.74398748656677
 7559.94552273976569
 7840.14819291517870
 7816.81747992126111
 7362.70055266652253
