 34.2114991387717069
 32.4213477052647079
 27.8007024348821190
 21.7862228051508815
 15.5418468408250838
 9.77986441578185861
 4.85654676650447925
 0.908280032597641229
 -2.07274721826872765
 -4.17168515891504388
 -5.51322642079396008
 -6.23603590667988694
 -6.47534569471817179
 -6.35473830784306060
 -5.98036765358346667
 -5.44039889257055975
 -4.80541360094682624
 -4.13035693137323889
 -3.45659288676375454
 -2.81396529509200288
 -2.22275654327971495
 -1.69563714185522785
 -1.23956574028419331
 -0.857344106427035735
 -0.548679263441828491
 -0.310837526533984443
 -0.139020387388294558
 -0.265512370446920505E-01
 0.348271773571948023E-01
 0.544195831071245667E-01
 0.418252210654376858E-01
 0.611619008696107774E-02
 -0.446662602344429505E-01
 -0.103811515297694029
 -0.166161907842827639
 -0.228008008694920827
 -0.286668215757573008
 -0.340046821708770042
 -0.386346822342942542
 -0.423935538021333547
 -0.451371011230707997
 -0.467591523796361763
 -0.472156513063354544
 -0.465271003374758463
 -0.447587599711647466
 -0.419974015217680074
 -0.383473621114122087
 -0.339466794776956682
 -0.289691465268717918
 -0.236206947974901188
 -0.181553723941189682
 -0.128852067351209881
 -0.814857304063866528E-01
 -0.424514484489633484E-01
 -0.138216586170367452E-01
 0.343983391196867874E-02
 0.951804421183767395E-02
 0.586138008605477726E-02
 -0.493904132674544659E-02
 -0.198921963606990444E-01
 -0.365480065671774587E-01
 -0.534455671930395629E-01
 -0.699787510797575396E-01
 -0.860165700529769567E-01
 -0.101688093479137265
 -0.117247650525150834
 -0.132918111134077477
 -0.148789485935257315
 -0.164739339518919725
 -0.180423289042083351
 -0.195221366952049974
 -0.208275470481938063
 -0.218653577772960572
 -0.225280321547435824
 -0.226720240574620785
 -0.221168428666863010
 -0.206874482597174392
 -0.182844946098638439
 -0.149313370294703984
 -0.107819258311507460
 -0.610212575305616664E-01
 -0.122805566188923989E-01
 0.347701626001527125E-01
 0.766615872039412560E-01
 0.110541079634106004
 0.134510025279101331
 0.147816555745586109
 0.150889229733922769
 0.145150908695029252
 0.132698319223027217
 0.115870080509307166
 0.966014024005576455E-01
 0.759131571028297675E-01
 0.539579147103182027E-01
 0.303367822409702122E-01
 0.438894192905759511E-02
 -0.245481180195581024E-01
 -0.569091888974352575E-01
 -0.926404490373310824E-01
 -0.130955125739584316
 -0.170245749146998637
 -0.208215362005528398
 -0.242286228516699037
 -0.270170957874207862
 -0.290377710741609174
 -0.302373685510552992
 -0.306546478859917593
 -0.304158116470698292
 -0.296981706032685533
 -0.286746382059877569
 -0.274735267448372678
 -0.261647418978653512
 -0.247763945513199357
 -0.233128775961164714
 -0.217629693486374620
 -0.201106768906511607
 -0.183483406316666403
 -0.164782601757689690
 -0.145107923012218781
 -0.124982279319488548
 -0.105606692894867002
 -0.884990287378380064E-01
 -0.748769262018587484E-01
 -0.652271453912529747E-01
 -0.593361865077845357E-01
 -0.565312352417832106E-01
 -0.558192230698637687E-01
 -0.560496715285998537E-01
 -0.562542934924781107E-01
 -0.560496715285998537E-01
 -0.558192230698637409E-01
 -0.565312352417832661E-01
 -0.593361865077845496E-01
 -0.652271453912528776E-01
 -0.748769262018587484E-01
 -0.884990287378380064E-01
 -0.105606692894866919
 -0.124982279319488576
 -0.145107923012218754
 -0.164782601757689745
 -0.183483406316666348
 -0.201106768906511496
 -0.217629693486374620
 -0.233128775961164714
 -0.247763945513199357
 -0.261647418978653512
 -0.274735267448372733
 -0.286746382059877569
 -0.296981706032685533
 -0.304158116470698292
 -0.306546478859917371
 -0.302373685510552936
 -0.290377710741609174
 -0.270170957874207918
 -0.242286228516699037
 -0.208215362005528315
 -0.170245749146998637
 -0.130955125739584261
 -0.926404490373310824E-01
 -0.569091888974352367E-01
 -0.245481180195581093E-01
 0.438894192905755435E-02
 0.303367822409702122E-01
 0.539579147103182583E-01
 0.759131571028297675E-01
 0.966014024005575900E-01
 0.115870080509307055
 0.132698319223027217
 0.145150908695029279
 0.150889229733922797
 0.147816555745586053
 0.134510025279101331
 0.110541079634105949
 0.766615872039412699E-01
 0.347701626001526987E-01
 -0.122805566188923260E-01
 -0.610212575305616664E-01
 -0.107819258311507557
 -0.149313370294703929
 -0.182844946098638383
 -0.206874482597174447
 -0.221168428666863148
 -0.226720240574620729
 -0.225280321547435824
 -0.218653577772960628
 -0.208275470481938063
 -0.195221366952049946
 -0.180423289042083212
 -0.164739339518919725
 -0.148789485935257371
 -0.132918111134077449
 -0.117247650525150862
 -0.101688093479137320
 -0.860165700529769428E-01
 -0.699787510797576090E-01
 -0.534455671930395906E-01
 -0.365480065671774587E-01
 -0.198921963606990132E-01
 -0.493904132674544312E-02
 0.586138008605485098E-02
 0.951804421183765660E-02
 0.343983391196867874E-02
 -0.138216586170367417E-01
 -0.424514484489633762E-01
 -0.814857304063866389E-01
 -0.128852067351209826
 -0.181553723941189765
 -0.236206947974901160
 -0.289691465268717974
 -0.339466794776956793
 -0.383473621114122087
 -0.419974015217680074
 -0.447587599711647466
 -0.465271003374758463
 -0.472156513063354544
 -0.467591523796361652
 -0.451371011230708052
 -0.423935538021333658
 -0.386346822342942597
 -0.340046821708770097
 -0.286668215757573008
 -0.228008008694920800
 -0.166161907842827639
 -0.103811515297694015
 -0.446662602344429019E-01
 0.611619008696104912E-02
 0.418252210654377066E-01
 0.544195831071245598E-01
 0.348271773571948440E-01
 -0.265512370446920748E-01
 -0.139020387388294558
 -0.310837526533984443
 -0.548679263441828380
 -0.857344106427035624
 -1.23956574028419353
 -1.69563714185522785
 -2.22275654327971495
 -2.81396529509200288
 -3.45659288676375454
 -4.13035693137323889
 -4.80541360094682624
 -5.44039889257055975
 -5.98036765358346667
 -6.35473830784306060
 -6.47534569471817179
 -6.23603590667988694
 -5.51322642079396008
 -4.17168515891504388
 -2.07274721826872765
 0.908280032597641007
 4.85654676650447925
 9.77986441578185861
 15.5418468408250838
 21.7862228051508815
 27.8007024348821190
 32.4213477052647079
