 0.000000000000000000E+00 -0.105242313215387274E-07
 0.331012037474653908E-02 -0.129051110201219821E-03
 0.662183483406764140E-02 -0.292557244254872768E-03
 0.993674036189995391E-02 -0.501441811094727663E-03
 0.132564397513503796E-01 -0.770028165204587065E-03
 0.165825445354421674E-01 -0.111197003301987426E-02
 0.199166779494195367E-01 -0.153757852646896754E-02
 0.232604779354139701E-01 -0.205177117481247827E-02
 0.266156002004946934E-01 -0.265350811106180098E-02
 0.299837213394578139E-01 -0.333669168390348606E-02
 0.333665420340474306E-01 -0.409147063500834608E-02
 0.367657903407623277E-01 -0.490591381497165486E-02
 0.401832250798948021E-01 -0.576734351733633206E-02
 0.436206393390379255E-01 -0.666340195482853590E-02
 0.470798641049612332E-01 -0.758270064555077207E-02
 0.505627720384980162E-01 -0.851518468658903592E-02
 0.540712814079338244E-01 -0.945225910874454740E-02
 0.576073601973068339E-01 -0.103867789709537316E-01
 0.611730304070843278E-01 -0.113129575331656525E-01
 0.647703725658153040E-01 -0.122262414382770940E-01
 0.684015304726404150E-01 -0.131231756668328866E-01
 0.720687161919215669E-01 -0.140012694275328132E-01
 0.757742153228102566E-01 -0.148588651602582222E-01
 0.795203925682432811E-01 -0.156950134556040101E-01
 0.833096976297200698E-01 -0.165093560274277955E-01
 0.871446714562231772E-01 -0.173020151098503064E-01
 0.910279528778730196E-01 -0.180734860106863821E-01
 0.949622856573255625E-01 -0.188245305512367879E-01
 0.989505259945437921E-01 -0.195560678273936465E-01
 0.102995650523479032 -0.202690600638179945E-01
 0.107100764842301466 -0.209644013612814706E-01
 0.111269112622239152 -0.216428259507027675E-01
 0.115504085343779872 -0.223048469960995741E-01
 0.119809232712986491 -0.229507264300575185E-01
 0.124188273815017958 -0.235804714971993880E-01
 0.128645109066618080 -0.241938446937364597E-01
 0.133183833034376198 -0.247903712152684717E-01
 0.137808748190964669 -0.253693408209648627E-01
 0.142524379687345881 -0.259298044345392664E-01
 0.147335491225083715 -0.264705553457395236E-01
 0.152247102119448030 -0.269900855038800354E-01
 0.157264505650831055 -0.274865302761346623E-01
 0.162393288809196790 -0.279576355915697045E-01
 0.167639353543674208 -0.284007831301333127E-01
 0.173008939636976056 -0.288130957060893575E-01
 0.178508649331902358 -0.291916008069119069E-01
 0.184145473844603558 -0.295333836849091258E-01
 0.189926821906297949 -0.298356551611501930E-01
 0.195860550481423701 -0.300956993952165193E-01
 0.201954997815341208 -0.303107353924372477E-01
 0.208219018968124114 -0.304777719344457784E-01
 0.214662023991960105 -0.305935534560561294E-01
 0.221294018907312928 -0.306546753486411395E-01
 0.228125649626040428 -0.306578495177506384E-01
 0.235168248956668435 -0.306002121519338248E-01
 0.242433886805965670 -0.304796107189624459E-01
 0.249935423659531031 -0.302948411343485942E-01
 0.257686567379129317 -0.300457152878474652E-01
 0.265701933292239012 -0.297328684915061960E-01
 0.273997107464953427 -0.293573691888250436E-01
 0.282588712937073439 -0.289203494901894981E-01
 0.291494478550786251 -0.284227715937286768E-01
 0.300733309812837080 -0.278654826564161823E-01
 0.310325360983985554 -0.272496422787785429E-01
 0.320292107275886861 -0.265769237966800263E-01
 0.330656415639321244 -0.258492127312846022E-01
 0.341442612131250378 -0.250685707480985537E-01
 0.352676543231464024 -0.242380509539511617E-01
 0.364385627720396954 -0.233624792304984660E-01
 0.376598894804481832 -0.224476825647400118E-01
 0.389347003060644958 -0.214994572226642200E-01
 0.402662233446409612 -0.205240057140472741E-01
 0.416578448072201457 -0.195280188004624267E-01
 0.431131004656285288 -0.185181948119453980E-01
 0.446356614599918045 -0.175011458755178276E-01
 0.462293130484153547 -0.164825802558481831E-01
 0.478979246603053799 -0.154674138567547255E-01
 0.496454094083784270 -0.144614178988951327E-01
 0.514756710468977419 -0.134714777866500133E-01
 0.533925362737154074 -0.125038484884156427E-01
 0.553996703141117930 -0.115635411374403890E-01
 0.575004739633996342 -0.106557677755530506E-01
 0.596979607850977034 -0.978485235700035823E-02
 0.619946140532487755 -0.895420737236749149E-02
 0.643922243792862670 -0.816877481830886529E-02
 0.668917108408850769 -0.743139192963078975E-02
 0.694929308450184635 -0.674378363052084533E-02
 0.721944868322298650 -0.610937152984892921E-02
 0.749935410556105575 -0.553242935681185887E-02
 0.778856526762241597 -0.501618846922777424E-02
 0.808646537709191593 -0.456257826366908859E-02
 0.839225818902016085 -0.417145028098916872E-02
 0.870496858588253319 -0.384435369143059725E-02
 0.902345180596794139 -0.358423127878499965E-02
 0.934641203204055193 -0.339358272457735907E-02
 0.967243021066621855 -0.327737327923661396E-02
 0.999999999999999556 -0.323863653470388450E-02
 1.03275697893337726 -0.327667760138476791E-02
 1.06535879679594414 -0.338881926066790561E-02
 1.09765481940320497 -0.357362197262476710E-02
 1.12950314141174601 -0.383217043883286130E-02
 1.16077418109798303 -0.416148378779720995E-02
 1.19135346229080774 -0.455551819629029624E-02
 1.22114347323775752 -0.501069270841654479E-02
 1.25006458944389376 -0.552641831800085477E-02
 1.27805513167770046 -0.610085145397241870E-02
 1.30507069154981448 -0.673127447424451148E-02
 1.33108289159114879 -0.741648328463426123E-02
 1.35607775620713666 -0.815433763819461283E-02
 1.38005385946751158 -0.894126181084499254E-02
 1.40302039214902230 -0.977469621553567376E-02
 1.42499526036600321 -0.106516868566357888E-01
 1.44600329685888140 -0.115653227467598409E-01
 1.46607463726284548 -0.125099063727504567E-01
 1.48524328953102192 -0.134818319190278223E-01
 1.50354590591621529 -0.144761106310807870E-01
 1.52102075339694554 -0.154854153192209021E-01
 1.53770686951584601 -0.165018631417406247E-01
 1.55364338540008129 -0.175192833871912479E-01
 1.56886899534371382 -0.185334450337684420E-01
 1.58342155192779788 -0.195404542916781110E-01
 1.59733776655359017 -0.205344582280954507E-01
 1.61065299693935415 -0.215079975863057861E-01
 1.62340110519551772 -0.224542371315372413E-01
 1.63561437227960260 -0.233679429250922346E-01
 1.64732345676853553 -0.242447163512146055E-01
 1.65855738786874918 -0.250801795053216155E-01
 1.66934358436067831 -0.258700870974389145E-01
 1.67970789272411225 -0.266107082776212769E-01
 1.68967463901601378 -0.272985976444036528E-01
 1.69926669018716225 -0.279301311330612395E-01
 1.70850552144921330 -0.285017502149457758E-01
 1.71741128706292590 -0.290104816941798745E-01
 1.72600289253504613 -0.294540846555236928E-01
 1.73429806670776010 -0.298312022711746047E-01
 1.74231343262087046 -0.301415482420267604E-01
 1.75006457634046853 -0.303858864627321902E-01
 1.75756611319403389 -0.305657539875005581E-01
 1.76483175104333068 -0.306830863815786177E-01
 1.77187435037395891 -0.307399406710213499E-01
 1.77870598109268663 -0.307383720897078418E-01
 1.78533797600803945 -0.306804554831002219E-01
 1.79178098103187544 -0.305683892311112426E-01
 1.79804500218465790 -0.304046351084555598E-01
 1.80413944951857586 -0.301920394909384847E-01
 1.81007317809370161 -0.299338321195245158E-01
 1.81585452615539622 -0.296334651918232390E-01
 1.82149135066809720 -0.292943824483730478E-01
 1.82699106036302394 -0.289198141611802656E-01
 1.83236064645632557 -0.285126603536040614E-01
 1.83760671119080277 -0.280754936101861238E-01
 1.84273549434916872 -0.276106265884656574E-01
 1.84775289788055153 -0.271201474818145820E-01
 1.85266450877491584 -0.266059071951484927E-01
 1.85747562031265345 -0.260695108727772955E-01
 1.86219125180903466 -0.255123350432500465E-01
 1.86681616696562358 -0.249355508739250720E-01
 1.87135489093338148 -0.243401354154360525E-01
 1.87581172618498160 -0.237268658499286966E-01
 1.88019076728701307 -0.230963035236231122E-01
 1.88449591465621991 -0.224487770718176383E-01
 1.88873088737776040 -0.217843689279277400E-01
 1.89289923515769809 -0.211029090045690496E-01
 1.89700434947652008 -0.204039828269326588E-01
 1.90104947400545554 -0.196869642999411495E-01
 1.90503771434267399 -0.189510783353955443E-01
 1.90897204712212631 -0.181954849102468549E-01
 1.91285532854377616 -0.174193700522326349E-01
 1.91669030237027949 -0.166220398172520940E-01
 1.92047960743175627 -0.158030213474948285E-01
 1.92422578467718930 -0.149621722914830002E-01
 1.92793128380807799 -0.140997984603161448E-01
 1.93159846952735892 -0.132167806665930282E-01
 1.93522962743418447 -0.123147094254701783E-01
 1.93882696959291567 -0.113960241930013487E-01
 1.94239263980269250 -0.104641546607759685E-01
 1.94592871859206573 -0.952366153188337686E-02
 1.94943722796150132 -0.858037278243872770E-02
 1.95292013589503810 -0.764150401637794623E-02
 1.95637936066096141 -0.671574294372456141E-02
 1.95981677492010453 -0.581325145327206503E-02
 1.96323420965923723 -0.494553143509475664E-02
 1.96663345796595213 -0.412505136497564543E-02
 1.97001627866054196 -0.336458717521660863E-02
 1.97338439979950486 -0.267614907218419922E-02
 1.97673952206458536 -0.206964964720682265E-02
 1.98008332205058002 -0.155123502624121621E-02
 1.98341745546455717 -0.112198447371576076E-02
 1.98674356024864895 -0.777000986243612732E-03
 1.99006325963809938 -0.505959240874377029E-03
 1.99337816516593191 -0.295150069605480605E-03
 1.99668987962525279 -0.130164389456858062E-03
 2.00000000000000000 -0.105965581358977562E-07
