 0.000000000000000000E+00 -0.917185249691817583E-01
 0.331012037474653908E-02 -0.953301336980996172E-01
 0.662183483406764140E-02 -0.964385281189696769E-01
 0.993674036189995391E-02 -0.946772548005351822E-01
 0.132564397513506016E-01 -0.900135271321811647E-01
 0.165825445354421674E-01 -0.831866609114482736E-01
 0.199166779494195367E-01 -0.755317792722247638E-01
 0.232604779354139701E-01 -0.686803244615053626E-01
 0.266156002004951375E-01 -0.640909614327540289E-01
 0.299837213394578139E-01 -0.627692008096827764E-01
 0.333665420340474306E-01 -0.651335329670467839E-01
 0.367657903407625497E-01 -0.710519314686322012E-01
 0.401832250798950241E-01 -0.799741836871413619E-01
 0.436206393390381475E-01 -0.910962836445416563E-01
 0.470798641049610112E-01 -0.103517308637734062
 0.505627720384977941E-01 -0.116362255637765089
 0.540712814079340465E-01 -0.128865342314074149
 0.576073601973068339E-01 -0.140415431528265661
 0.611730304070841058E-01 -0.150571052015150308
 0.647703725658153040E-01 -0.159053774571900369
 0.684015304726404150E-01 -0.165728022207890624
 0.720687161919215669E-01 -0.170574199361990753
 0.757742153228098125E-01 -0.173660222373421075
 0.795203925682432811E-01 -0.175114820637785856
 0.833096976297200698E-01 -0.175104414493790717
 0.871446714562229552E-01 -0.173814311270560462
 0.910279528778730196E-01 -0.171434243219686699
 0.949622856573255625E-01 -0.168147957282586663
 0.989505259945437921E-01 -0.164126445748577043
 0.102995650523479032 -0.159524141062752201
 0.107100764842301688 -0.154477209108191127
 0.111269112622238708 -0.149103189799559888
 0.115504085343779872 -0.143501646381475167
 0.119809232712986713 -0.137755699315109059
 0.124188273815018180 -0.131934004110809439
 0.128645109066618080 -0.126092597403279882
 0.133183833034375976 -0.120276338161210694
 0.137808748190964891 -0.114520411586461035
 0.142524379687345437 -0.108852512081757252
 0.147335491225083715 -0.103294989487829614
 0.152247102119448030 -0.978657787952007113E-01
 0.157264505650830833 -0.925787392322258290E-01
 0.162393288809196790 -0.874449547601086896E-01
 0.167639353543673986 -0.824741479171615388E-01
 0.173008939636976056 -0.776740895706392598E-01
 0.178508649331902358 -0.730490196848768841E-01
 0.184145473844603558 -0.685996691952294041E-01
 0.189926821906297949 -0.643243351371621391E-01
 0.195860550481423701 -0.602199143591679448E-01
 0.201954997815341208 -0.562829934702209558E-01
 0.208219018968123892 -0.525103748162318168E-01
 0.214662023991960105 -0.488992829420561714E-01
 0.221294018907312928 -0.454474094191393077E-01
 0.228125649626040428 -0.421540695215982600E-01
 0.235168248956668657 -0.390206111027196698E-01
 0.242433886805965448 -0.360494056459999337E-01
 0.249935423659531253 -0.332424739259666105E-01
 0.257686567379129539 -0.305988277885577489E-01
 0.265701933292239012 -0.281131495971376141E-01
 0.273997107464953427 -0.257791804185651674E-01
 0.282588712937073661 -0.235929966563637045E-01
 0.291494478550786251 -0.215518549907282482E-01
 0.300733309812837302 -0.196522761079252865E-01
 0.310325360983985998 -0.178868588182442140E-01
 0.320292107275887084 -0.162440331152852932E-01
 0.330656415639321022 -0.147144901548651539E-01
 0.341442612131250156 -0.132939816333788163E-01
 0.352676543231464024 -0.119794114164314160E-01
 0.364385627720396954 -0.107666077539837375E-01
 0.376598894804481832 -0.965014202865170471E-02
 0.389347003060644958 -0.862299607862718198E-02
 0.402662233446409612 -0.767893368066611959E-02
 0.416578448072201457 -0.681586834842402237E-02
 0.431131004656285288 -0.603006157363646447E-02
 0.446356614599918045 -0.531494296246167678E-02
 0.462293130484153547 -0.466677492994395718E-02
 0.478979246603053799 -0.408064915233090266E-02
 0.496454094083784270 -0.354502872645691934E-02
 0.514756710468977419 -0.305238536442541336E-02
 0.533925362737153852 -0.260427001994320562E-02
 0.553996703141117930 -0.220256708369283337E-02
 0.575004739633996120 -0.184581508618032459E-02
 0.596979607850977034 -0.152837255960177210E-02
 0.619946140532487755 -0.125220539177050508E-02
 0.643922243792862670 -0.101816147908093037E-02
 0.668917108408850547 -0.818592589014409335E-03
 0.694929308450184635 -0.645492893270141021E-03
 0.721944868322298650 -0.498481439448928039E-03
 0.749935410556105575 -0.378979968603038099E-03
 0.778856526762241597 -0.279687093460735713E-03
 0.808646537709191593 -0.201741955936579181E-03
 0.839225818902016085 -0.143612827576929830E-03
 0.870496858588253319 -0.100932781822636188E-03
 0.902345180596794139 -0.693235015960789222E-04
 0.934641203204055193 -0.479976462005609849E-04
 0.967243021066621855 -0.348191601661790390E-04
 0.999999999999999556 -0.282887197193649881E-04
 1.03275697893337726 -0.307995989639125065E-04
 1.06535879679594414 -0.456597943889082623E-04
 1.09765481940320497 -0.724173271969363012E-04
 1.12950314141174601 -0.109243900657768578E-03
 1.16077418109798325 -0.156257559691244771E-03
 1.19135346229080774 -0.214282145905775491E-03
 1.22114347323775752 -0.286795441359564952E-03
 1.25006458944389376 -0.379970972882196010E-03
 1.27805513167770068 -0.499446270030258640E-03
 1.30507069154981470 -0.646941889522468757E-03
 1.33108289159114879 -0.823634650726677141E-03
 1.35607775620713644 -0.102728059136198108E-02
 1.38005385946751158 -0.125991002847513365E-02
 1.40302039214902230 -0.152443083775324461E-02
 1.42499526036600299 -0.182269110488098669E-02
 1.44600329685888118 -0.216148685818063095E-02
 1.46607463726284526 -0.254718698803050236E-02
 1.48524328953102192 -0.298830745479440347E-02
 1.50354590591621506 -0.348348590924649855E-02
 1.52102075339694531 -0.403277910100185207E-02
 1.53770686951584601 -0.464519098419255601E-02
 1.55364338540008129 -0.532443504584140161E-02
 1.56886899534371382 -0.606888111763738761E-02
 1.58342155192779788 -0.687596437193691446E-02
 1.59733776655359017 -0.775091299490418377E-02
 1.61065299693935415 -0.870218812608153543E-02
 1.62340110519551750 -0.973373434812857888E-02
 1.63561437227960260 -0.108509491351882932E-01
 1.64732345676853553 -0.120624188078253779E-01
 1.65855738786874918 -0.133743555563107536E-01
 1.66934358436067853 -0.147925837218095668E-01
 1.67970789272411247 -0.163241789323170031E-01
 1.68967463901601400 -0.179730544354676121E-01
 1.69926669018716248 -0.197433631931547664E-01
 1.70850552144921330 -0.216433662061922480E-01
 1.71741128706292590 -0.236797726810399900E-01
 1.72600289253504613 -0.258552866590586530E-01
 1.73429806670776032 -0.281739835746003080E-01
 1.74231343262087002 -0.306422256890321806E-01
 1.75006457634046853 -0.332669476550096765E-01
 1.75756611319403411 -0.360546602977813851E-01
 1.76483175104333090 -0.390094738976482225E-01
 1.77187435037395868 -0.421319776146308750E-01
 1.77870598109268663 -0.454219282747592781E-01
 1.78533797600803945 -0.488803284881701716E-01
 1.79178098103187544 -0.525075754595159469E-01
 1.79804500218465790 -0.563028212714541884E-01
 1.80413944951857586 -0.602666637642628317E-01
 1.81007317809370161 -0.644010363088778764E-01
 1.81585452615539600 -0.687063116441449240E-01
 1.82149135066809720 -0.731815804117480068E-01
 1.82699106036302350 -0.778263823463433008E-01
 1.83236064645632535 -0.826401052855275514E-01
 1.83760671119080277 -0.876198350488735928E-01
 1.84273549434916850 -0.927599675515380639E-01
 1.84775289788055153 -0.980529558434268117E-01
 1.85266450877491584 -0.103489012600497240
 1.85747562031265367 -0.109055296668161744
 1.86219125180903466 -0.114735239108973833
 1.86681616696562358 -0.120507693641263527
 1.87135489093338148 -0.126345584193488208
 1.87581172618498138 -0.132214106827169886
 1.88019076728701284 -0.138068836171343357
 1.88449591465621968 -0.143854073466369858
 1.88873088737776040 -0.149501524321368151
 1.89289923515769787 -0.154928800386623988
 1.89700434947652008 -0.160037291111241681
 1.90104947400545554 -0.164709875282248897
 1.90503771434267422 -0.168809473322320547
 1.90897204712212654 -0.172179270348252478
 1.91285532854377660 -0.174645077842591534
 1.91669030237027949 -0.176019989127947668
 1.92047960743175627 -0.176111476524606597
 1.92422578467718974 -0.174731519973616134
 1.92793128380807777 -0.171710720061623467
 1.93159846952735892 -0.166917058199412244
 1.93522962743418470 -0.160279214431819195
 1.93882696959291567 -0.151813521115652800
 1.94239263980269272 -0.141652721611354199
 1.94592871859206551 -0.130073366628921883
 1.94943722796150132 -0.117516977238970727
 1.95292013589503810 -0.104597883811800740
 1.95637936066096163 -0.920889702343178074E-01
 1.95981677492010453 -0.808758666342788007E-01
 1.96323420965923701 -0.718719776445367747E-01
 1.96663345796595213 -0.658932938721204231E-01
 1.97001627866054196 -0.634994341407795621E-01
 1.97338439979950442 -0.648277035981374011E-01
 1.97673952206458559 -0.694588498914182478E-01
 1.98008332205058002 -0.763783836690593576E-01
 1.98341745546455739 -0.841104651666268049E-01
 1.98674356024864895 -0.910022790140575660E-01
 1.99006325963809938 -0.957018484856631407E-01
 1.99337816516593191 -0.974613014611247497E-01
 1.99668987962525302 -0.963141786604758687E-01
 2.00000000000000000 -0.926202779692199968E-01
