 0.000000000000000000E+00 1.00112491218835298
 0.331012037474653908E-02 1.00089672278365649
 0.662183483406764140E-02 0.999805353765714000
 0.993674036189995391E-02 0.997704759521623408
 0.132564397513506016E-01 0.994250741141265881
 0.165825445354421674E-01 0.989131148110903968
 0.199166779494195367E-01 0.982071112239773614
 0.232604779354139701E-01 0.972852346822440150
 0.266156002004951375E-01 0.961340199732571676
 0.299837213394578139E-01 0.947485302970008103
 0.333665420340474306E-01 0.931321427879816532
 0.367657903407625497E-01 0.912956695210768387
 0.401832250798950241E-01 0.892558931735857430
 0.436206393390381475E-01 0.870341434658864821
 0.470798641049610112E-01 0.846547361037326307
 0.505627720384977941E-01 0.821436492754827774
 0.540712814079340465E-01 0.795273404917983928
 0.576073601973068339E-01 0.768318237609351362
 0.611730304070841058E-01 0.740819513139585384
 0.647703725658153040E-01 0.713009074441473767
 0.684015304726404150E-01 0.685098727704376076
 0.720687161919215669E-01 0.657278356309595191
 0.757742153228098125E-01 0.629715183375243459
 0.795203925682432811E-01 0.602553927583170834
 0.833096976297200698E-01 0.575917606614145483
 0.871446714562229552E-01 0.549908786395535532
 0.910279528778730196E-01 0.524611105411515233
 0.949622856573255625E-01 0.500090936721706569
 0.989505259945437921E-01 0.476399085318259807
 0.102995650523479032 0.453572458644668497
 0.107100764842301688 0.431635684286371835
 0.111269112622238708 0.410602666515675008
 0.115504085343779872 0.390478064392289326
 0.119809232712986713 0.371258657893009214
 0.124188273815018180 0.352934577991412923
 0.128645109066618080 0.335490407279454117
 0.133183833034375976 0.318906172586210790
 0.137808748190964891 0.303158240445551286
 0.142524379687345437 0.288220112959878760
 0.147335491225083715 0.274063120959408213
 0.152247102119448030 0.260657021921996634
 0.157264505650830833 0.247970514220039018
 0.162393288809196790 0.235971669576883231
 0.167639353543673986 0.224628308022345125
 0.173008939636976056 0.213908390938987225
 0.178508649331902358 0.203780469082493088
 0.184145473844603558 0.194214113566935076
 0.189926821906297949 0.185180250850823319
 0.195860550481423701 0.176651371276925845
 0.201954997815341208 0.168601545814850012
 0.208219018968123892 0.161006146464834354
 0.214662023991960105 0.153841262387015204
 0.221294018907312928 0.147083032147357018
 0.228125649626040428 0.140707156259505806
 0.235168248956668657 0.134688671581950387
 0.242433886805965448 0.129002238888383275
 0.249935423659531253 0.123623269387846207
 0.257686567379129539 0.118529470265010553
 0.265701933292239012 0.113701631922717483
 0.273997107464953427 0.109122846905810353
 0.282588712937073661 0.104777027932832847
 0.291494478550786251 0.100648112178427271
 0.300733309812837302 0.967199101999262206E-01
 0.310325360983985998 0.929758147746642671E-01
 0.320292107275887084 0.893983525040518145E-01
 0.330656415639321022 0.859702308574175345E-01
 0.341442612131250156 0.826764720829995803E-01
 0.352676543231464024 0.795036292300236869E-01
 0.364385627720396954 0.764374554288408392E-01
 0.376598894804481832 0.734650448078096041E-01
 0.389347003060644958 0.705776680605508105E-01
 0.402662233446409612 0.677671257301239033E-01
 0.416578448072201457 0.650234285495049913E-01
 0.431131004656285288 0.623411617515302122E-01
 0.446356614599918045 0.597241136141680382E-01
 0.462293130484153547 0.571777181250244376E-01
 0.478979246603053799 0.546953026259766328E-01
 0.496454094083784270 0.522538567497151454E-01
 0.514756710468977419 0.498189991113011307E-01
 0.533925362737153852 0.473637909632327533E-01
 0.553996703141117930 0.448971308637574271E-01
 0.575004739633996120 0.424392907245835851E-01
 0.596979607850977034 0.399838835529404205E-01
 0.619946140532487755 0.375194781263047880E-01
 0.643922243792862670 0.350363707400509275E-01
 0.668917108408850547 0.325191497084984307E-01
 0.694929308450184635 0.299565031300763340E-01
 0.721944868322298650 0.273463480745808965E-01
 0.749935410556105575 0.246823034260069199E-01
 0.778856526762241597 0.219271950144410768E-01
 0.808646537709191593 0.190669518820460876E-01
 0.839225818902016085 0.161378070066701337E-01
 0.870496858588253319 0.131478942630489874E-01
 0.902345180596794139 0.100652668451851959E-01
 0.934641203204055193 0.686356229037451450E-02
 0.967243021066621855 0.355366545849801875E-02
 0.999999999999999556 0.185393776698519687E-03
 1.03275697893337726 -0.317617792493724797E-02
 1.06535879679594414 -0.647056962538809267E-02
 1.09765481940320497 -0.968395722169481180E-02
 1.12950314141174601 -0.128432842107676637E-01
 1.16077418109798325 -0.159613546971573636E-01
 1.19135346229080774 -0.190430466388141449E-01
 1.22114347323775752 -0.220823648433140958E-01
 1.25006458944389376 -0.250315314564382614E-01
 1.27805513167770068 -0.278522024433039972E-01
 1.30507069154981470 -0.305669126804884728E-01
 1.33108289159114879 -0.332097338767551042E-01
 1.35607775620713644 -0.357854356510759891E-01
 1.38005385946751158 -0.382978243634666607E-01
 1.40302039214902230 -0.407674513228169846E-01
 1.42499526036600299 -0.432144404146945563E-01
 1.44600329685888118 -0.456496250478274357E-01
 1.46607463726284526 -0.480830958186681742E-01
 1.48524328953102192 -0.505295146245824875E-01
 1.50354590591621506 -0.530074242464006196E-01
 1.52102075339694531 -0.555348677739769467E-01
 1.53770686951584601 -0.581162093750029751E-01
 1.55364338540008129 -0.607348459503982072E-01
 1.56886899534371382 -0.633716213574878201E-01
 1.58342155192779788 -0.660253431682418790E-01
 1.59733776655359017 -0.687106379128085143E-01
 1.61065299693935415 -0.714476620851065836E-01
 1.62340110519551750 -0.742576828150970508E-01
 1.63561437227960260 -0.771612776933355282E-01
 1.64732345676853553 -0.801734641664012121E-01
 1.65855738786874918 -0.833016615783061798E-01
 1.66934358436067853 -0.865514655012522144E-01
 1.67970789272411247 -0.899323859631981082E-01
 1.68967463901601400 -0.934593138891513242E-01
 1.69926669018716248 -0.971516359260796020E-01
 1.70850552144921330 -0.101030809558928847
 1.71741128706292590 -0.105118214574732124
 1.72600289253504613 -0.109434025620749484
 1.73429806670776032 -0.113996424015864614
 1.74231343262087002 -0.118821879828076446
 1.75006457634046853 -0.123926501114319257
 1.75756611319403411 -0.129327195322254562
 1.76483175104333090 -0.135042198867378477
 1.77187435037395868 -0.141091208926496570
 1.77870598109268663 -0.147495312475049212
 1.78533797600803945 -0.154276854712973643
 1.79178098103187544 -0.161459353038546610
 1.79804500218465790 -0.169067528656605404
 1.80413944951857586 -0.177127389751126657
 1.81007317809370161 -0.185666209466135296
 1.81585452615539600 -0.194712389105089007
 1.82149135066809720 -0.204295297497483763
 1.82699106036302350 -0.214445125371571649
 1.83236064645632535 -0.225192729144438025
 1.83760671119080277 -0.236569406634528939
 1.84273549434916850 -0.248606562284501592
 1.84775289788055153 -0.261335263672456963
 1.85266450877491584 -0.274785750061315226
 1.85747562031265367 -0.288986994487272775
 1.86219125180903466 -0.303966368811520671
 1.86681616696562358 -0.319749356204196866
 1.87135489093338148 -0.336359209789621583
 1.87581172618498138 -0.353816476685372805
 1.88019076728701284 -0.372138346961895961
 1.88449591465621968 -0.391337836738497480
 1.88873088737776040 -0.411422849845471450
 1.89289923515769787 -0.432395141978784481
 1.89700434947652008 -0.454249156802443266
 1.90104947400545554 -0.476970688211556360
 1.90503771434267422 -0.500535365687306610
 1.90897204712212654 -0.524907004695747803
 1.91285532854377660 -0.550035871804852028
 1.91669030237027949 -0.575856904081451848
 1.92047960743175627 -0.602287926157708875
 1.92422578467718974 -0.629227932897200914
 1.92793128380807777 -0.656555540754524936
 1.93159846952735892 -0.684127746035975925
 1.93522962743418470 -0.711779161828106410
 1.93882696959291567 -0.739321930604276423
 1.94239263980269272 -0.766546544982980138
 1.94592871859206551 -0.793223816501889778
 1.94943722796150132 -0.819108303443113583
 1.95292013589503810 -0.843943421288315010
 1.95637936066096163 -0.867468636238014290
 1.95981677492010453 -0.889428639556655298
 1.96323420965923701 -0.909585019418486462
 1.96663345796595213 -0.927729206143871110
 1.97001627866054196 -0.943697654262700913
 1.97338439979950442 -0.957385576820593331
 1.97673952206458559 -0.968761082569840060
 1.98008332205058002 -0.977873599216377509
 1.98341745546455739 -0.984855860819696671
 1.98674356024864895 -0.989922443396939356
 1.99006325963809938 -0.993343150196514091
 1.99337816516593191 -0.995424710494443699
 1.99668987962525302 -0.996505634110977812
 2.00000000000000000 -0.996729429460233685
