 0.000000000000000000E+00 0.000000000000000000E+00
 0.331012037474653908E-02 0.448462170924597836E-07
 0.662183483406764140E-02 0.333113301365312399E-06
 0.993674036189995391E-02 0.106805715289834916E-05
 0.132564397513506016E-01 0.239583995555920076E-05
 0.165825445354421674E-01 0.442810601335239419E-05
 0.199166779494195367E-01 0.721448199423350732E-05
 0.232604779354139701E-01 0.107416219798803188E-04
 0.266156002004951375E-01 0.149483412650228205E-04
 0.299837213394578139E-01 0.197377281815537694E-04
 0.333665420340474306E-01 0.249936116165964997E-04
 0.367657903407625497E-01 0.305862154346849449E-04
 0.401832250798950241E-01 0.363764983305309663E-04
 0.436206393390381475E-01 0.422234038974113375E-04
 0.470798641049610112E-01 0.479925425487473268E-04
 0.505627720384977941E-01 0.535632246307133107E-04
 0.540712814079340465E-01 0.588309462104945503E-04
 0.576073601973068339E-01 0.637077619173621065E-04
 0.611730304070841058E-01 0.681230210568239801E-04
 0.647703725658153040E-01 0.720254665056001975E-04
 0.684015304726404150E-01 0.753853916628953100E-04
 0.720687161919215669E-01 0.781952772925482769E-04
 0.757742153228098125E-01 0.804677591897309791E-04
 0.795203925682432811E-01 0.822305037341828152E-04
 0.833096976297200698E-01 0.835186845653506906E-04
 0.871446714562229552E-01 0.843672215987243155E-04
 0.910279528778730196E-01 0.848055077967319488E-04
 0.949622856573255625E-01 0.848562718863264838E-04
 0.989505259945437921E-01 0.845384653833369793E-04
 0.102995650523479032 0.838728160779111525E-04
 0.107100764842301688 0.828880002279276857E-04
 0.111269112622238708 0.816256326769609431E-04
 0.115504085343779872 0.801431737645871188E-04
 0.119809232712986713 0.785134015923703458E-04
 0.124188273815018180 0.768186165947284364E-04
 0.128645109066618080 0.751400002296789355E-04
 0.133183833034375976 0.735468340536319222E-04
 0.137808748190964891 0.720935257980575753E-04
 0.142524379687345437 0.708288229704092206E-04
 0.147335491225083715 0.698103943516997571E-04
 0.152247102119448030 0.691124574368068832E-04
 0.157264505650830833 0.688212168752300115E-04
 0.162393288809196790 0.690179203201610696E-04
 0.167639353543673986 0.697526556091256284E-04
 0.173008939636976056 0.710260376436465759E-04
 0.178508649331902358 0.727935252589863497E-04
 0.184145473844603558 0.749814038487874794E-04
 0.189926821906297949 0.774994974198586506E-04
 0.195860550481423701 0.802463063898898221E-04
 0.201954997815341208 0.831077483890253413E-04
 0.208219018968123892 0.859706419540869396E-04
 0.214662023991960105 0.887567257749123390E-04
 0.221294018907312928 0.914205076565344606E-04
 0.228125649626040428 0.939028693388382446E-04
 0.235168248956668657 0.961219920154095930E-04
 0.242433886805965448 0.979940757798348106E-04
 0.249935423659531253 0.994301380481823978E-04
 0.257686567379129539 0.100364643892176736E-03
 0.265701933292239012 0.100809086122283516E-03
 0.273997107464953427 0.100824455374447455E-03
 0.282588712937073661 0.100440369956032233E-03
 0.291494478550786251 0.996214175030751082E-04
 0.300733309812837302 0.982483801204834688E-04
 0.310325360983985998 0.961548551744972440E-04
 0.320292107275887084 0.933152543863168855E-04
 0.330656415639321022 0.900021942625329633E-04
 0.341442612131250156 0.867294362685884100E-04
 0.352676543231464024 0.840053334605305976E-04
 0.364385627720396954 0.819883294639777078E-04
 0.376598894804481832 0.803070336841682226E-04
 0.389347003060644958 0.784647608626893401E-04
 0.402662233446409612 0.761688383045167527E-04
 0.416578448072201457 0.732098515399666694E-04
 0.431131004656285288 0.693131687994810172E-04
 0.446356614599918045 0.641338916025578474E-04
 0.462293130484153547 0.573737184372391173E-04
 0.478979246603053799 0.491177457308522908E-04
 0.496454094083784270 0.399849210402444002E-04
 0.514756710468977419 0.308337961336845319E-04
 0.533925362737153852 0.221394882882628261E-04
 0.553996703141117930 0.140988743050391567E-04
 0.575004739633996120 0.744813406158097280E-05
 0.596979607850977034 0.258356194261108042E-05
 0.619946140532487755 -0.992364294608410517E-06
 0.643922243792862670 -0.368458092481791036E-05
 0.668917108408850547 -0.578104839753828554E-05
 0.694929308450184635 -0.763651209626048837E-05
 0.721944868322298650 -0.922384784783324084E-05
 0.749935410556105575 -0.101150661915001948E-04
 0.778856526762241597 -0.103635715009685404E-04
 0.808646537709191593 -0.102955698821386737E-04
 0.839225818902016085 -0.994694595628346958E-05
 0.870496858588253319 -0.950712579183631720E-05
 0.902345180596794139 -0.917654004319486229E-05
 0.934641203204055193 -0.883216724224251853E-05
 0.967243021066621855 -0.818489598994019719E-05
 0.999999999999999556 -0.702543508738967795E-05
 1.03275697893337726 -0.526842654018017615E-05
 1.06535879679594414 -0.323726662106363446E-05
 1.09765481940320497 -0.143971913368183358E-05
 1.12950314141174601 0.333763411645310176E-06
 1.16077418109798325 0.218538001896298626E-05
 1.19135346229080774 0.381727008190483369E-05
 1.22114347323775752 0.546890509053361879E-05
 1.25006458944389376 0.716231133749123925E-05
 1.27805513167770068 0.833482215955429903E-05
 1.30507069154981470 0.896268424009842202E-05
 1.33108289159114879 0.970830084004977881E-05
 1.35607775620713644 0.108187301015745790E-04
 1.38005385946751158 0.117346955204595157E-04
 1.40302039214902230 0.121930806426207600E-04
 1.42499526036600299 0.128683593094547508E-04
 1.44600329685888118 0.143720152288545973E-04
 1.46607463726284526 0.167440548692805068E-04
 1.48524328953102192 0.198499134533042338E-04
 1.50354590591621506 0.232483078131243801E-04
 1.52102075339694531 0.263349781109932400E-04
 1.53770686951584601 0.287691519150366875E-04
 1.55364338540008129 0.304832872348337736E-04
 1.56886899534371382 0.316180212939933710E-04
 1.58342155192779788 0.324053494889521069E-04
 1.59733776655359017 0.330660789304464055E-04
 1.61065299693935415 0.337725935886634733E-04
 1.62340110519551750 0.345364582594683456E-04
 1.63561437227960260 0.353147945221103359E-04
 1.64732345676853553 0.361324692853273328E-04
 1.65855738786874918 0.371972153330186312E-04
 1.66934358436067853 0.387166409535590538E-04
 1.67970789272411247 0.406550037718685897E-04
 1.68967463901601400 0.427804986485372298E-04
 1.69926669018716248 0.447963799053266283E-04
 1.70850552144921330 0.463485151934968294E-04
 1.71741128706292590 0.471054819810510960E-04
 1.72600289253504613 0.467979287903141621E-04
 1.73429806670776032 0.452348835267100534E-04
 1.74231343262087002 0.423771622778414510E-04
 1.75006457634046853 0.383314659620890321E-04
 1.75756611319403411 0.332737890708024368E-04
 1.76483175104333090 0.274264116193539763E-04
 1.77187435037395868 0.210700085003246743E-04
 1.77870598109268663 0.144766411270748102E-04
 1.78533797600803945 0.782195994418144821E-05
 1.79178098103187544 0.119306845990223461E-05
 1.79804500218465790 -0.534334493617810022E-05
 1.80413944951857586 -0.117028865630982887E-04
 1.81007317809370161 -0.177868877655314660E-04
 1.81585452615539600 -0.235012540034082291E-04
 1.82149135066809720 -0.287630685026457104E-04
 1.82699106036302350 -0.334967016719070118E-04
 1.83236064645632535 -0.376418327955799209E-04
 1.83760671119080277 -0.411630860315103311E-04
 1.84273549434916850 -0.440450396580372192E-04
 1.84775289788055153 -0.462828508005390108E-04
 1.85266450877491584 -0.478756745833715082E-04
 1.85747562031265367 -0.488197945273344491E-04
 1.86219125180903466 -0.491037395210156669E-04
 1.86681616696562358 -0.487098954688609109E-04
 1.87135489093338148 -0.476223832959879793E-04
 1.87581172618498138 -0.458375703387048884E-04
 1.88019076728701284 -0.433719825721786450E-04
 1.88449591465621968 -0.402614614125423900E-04
 1.88873088737776040 -0.365514853626955672E-04
 1.89289923515769787 -0.322872468537265648E-04
 1.89700434947652008 -0.275115900180092201E-04
 1.90104947400545554 -0.222720330151008388E-04
 1.90503771434267422 -0.166328518813035553E-04
 1.90897204712212654 -0.106864944080911231E-04
 1.91285532854377660 -0.455999909562968193E-05
 1.91669030237027949 0.158491758175541616E-05
 1.92047960743175627 0.755766709258222856E-05
 1.92422578467718974 0.131500736844030457E-04
 1.92793128380807777 0.181518471869982777E-04
 1.93159846952735892 0.223670500399507337E-04
 1.93522962743418470 0.256290051515822804E-04
 1.93882696959291567 0.278139108063209952E-04
 1.94239263980269272 0.288537296093760993E-04
 1.94592871859206551 0.287463380643053592E-04
 1.94943722796150132 0.275600310715297896E-04
 1.95292013589503810 0.254316665097800974E-04
 1.95637936066096163 0.225593524711744723E-04
 1.95981677492010453 0.191895684670927739E-04
 1.96323420965923701 0.155975171909004308E-04
 1.96663345796595213 0.120603740538046622E-04
 1.97001627866054196 0.882570502092846929E-05
 1.97338439979950442 0.607944006310180652E-05
 1.97673952206458559 0.392091962303013123E-05
 1.98008332205058002 0.235490736059867496E-05
 1.98341745546455739 0.130636871194938079E-05
 1.98674356024864895 0.656408114847436321E-06
 1.99006325963809938 0.283320619999225651E-06
 1.99337816516593191 0.895015581077458874E-07
 1.99668987962525302 0.128029812361431469E-07
 2.00000000000000000 0.000000000000000000E+00
