 163.762419870799704
 162.371636154356707
 157.647807742549759
 149.871937677245654
 139.479206023636834
 127.004681443254157
 113.024148944005375
 98.1023002012342005
 82.7552124236451618
 67.4283880148465897
 52.4879002460555171
 38.2208564936328088
 24.8415447667580622
 12.5004146067644886
 1.29396131543552739
 -8.72564726061707674
 -17.5418030266361917
 -25.1657990804202818
 -31.6303310051926765
 -36.9841059373623864
 -41.2874566169885497
 -44.6088400579628725
 -47.0220951615212073
 -48.6043274803985739
 -49.4342809202926290
 -49.5910537287172204
 -49.1530314292245052
 -48.1969489917766580
 -46.7970472072589061
 -45.0243274228133714
 -42.9459223796276035
 -40.6245974014531370
 -38.1183896633670116
 -35.4803917137613496
 -32.7586844097429051
 -29.9964139797123686
 -27.2319902817887396
 -24.4993695241732574
 -21.8283820805308082
 -19.2450714671680743
 -16.7720143195445992
 -14.4285891284168635
 -12.2311617893708213
 -10.1931701573014522
 -8.32511729833858105
 -6.63451091478312982
 -5.12579988109325324
 -3.80035252725515260
 -2.65650460013068734
 -1.68969258839480374
 -0.892685286869640104
 -0.255922122844170596
 0.232052411840643152
 0.584096279204137425
 0.813970645023091466
 0.935875272899864830
 0.964039870699416324
 0.912378914710401889
 0.794214477248635142
 0.622072373380526233
 0.407553905947832307
 0.161277620970017049
 -0.107123690962990584
 -0.388972180793311473
 -0.676504325610667534
 -0.962843168561445473
 -1.24200035816290044
 -1.50891438394083699
 -1.75951861959773148
 -1.99082179979244800
 -2.20097770302071361
 -2.38932211800203520
 -2.55636149438867077
 -2.70370362353751492
 -2.83392447511211909
 -2.95036977705203940
 -3.05689657638114776
 -3.15756648369533011
 -3.25630779750266353
 -3.35657079219297572
 -3.46100862825850575
 -3.57121924198744090
 -3.68757575801326309
 -3.80915706044411806
 -3.93377601337073113
 -4.05809819081255618
 -4.17784716591958816
 -4.28809470625452693
 -4.38362873396762254
 -4.45937839349275933
 -4.51085950288134452
 -4.53459285489914787
 -4.52844759204205349
 -4.49187315417929334
 -4.42600221345468547
 -4.33362459843109971
 -4.21904102274272663
 -4.08780667997098490
 -3.94637734037390153
 -3.80168199771007576
 -3.66066431924127356
 -3.52984873840798263
 -3.41498282258604391
 -3.32078273354124054
 -3.25077632195444544
 -3.20721801093480474
 -3.19105144966080045
 -3.20191307114546664
 -3.23818505977177429
 -3.29710758069935661
 -3.37494790996446303
 -3.46720896595230954
 -3.56885255257312828
 -3.67451703301238153
 -3.77872294917720231
 -3.87607552725809468
 -3.96147888150816563
 -4.03036753042782347
 -4.07894261635607158
 -4.10438511905291215
 -4.10501261814124785
 -4.08034584670885092
 -4.03105381573177191
 -3.95875934380305061
 -3.86571647690554299
 -3.75440792833351455
 -3.62713642053120244
 -3.48568777946142738
 -3.33112695901334410
 -3.16375900320609782
 -2.98325169623260145
 -2.78887924162930512
 -2.57981579250446957
 -2.35539799954621509
 -2.11529390647303028
 -1.85955468447060590
 -1.58857088481896835
 -1.30298822966046601
 -1.00364528006674680
 -0.691578499772507183
 -0.368114572933687101
 -0.350438741444680929E-01
 0.305159574465903360
 0.649135345349899584
 0.992531416030875580
 1.33006743088752755
 1.65579923114514749
 1.96356285912470385
 2.24752298845627774
 2.50271540039844309
 2.72546887064476451
 2.91362260765963343
 3.06650971364053104
 3.18473358624530212
 3.26980537977125874
 3.32372940112660231
 3.34861942482379904
 3.34640684147260847
 3.31866917117902238
 3.26657418823529833
 3.19091186435049012
 3.09218367625334789
 2.97073291637205861
 2.82691137830539452
 2.66127410274703280
 2.47478041451086028
 2.26896933535671685
 2.04607777017266290
 1.80907906791103135
 1.56163172499391112
 1.30793871702737130
 1.05252677243431991
 0.799963382097665043
 0.554539755069024642
 0.319960317865322252
 0.990869424806329890E-01
 -0.106220009917704694
 -0.295142940572664603
 -0.467836906195299995
 -0.625273628148143690
 -0.769028462622534659
 -0.901031698840381812
 -1.02329937003155758
 -1.13766396614940946
 -1.24554127078671661
 -1.34778077862406453
 -1.44463439713237340
 -1.53584046481935599
 -1.62078144042889938
 -1.69865919363299533
 -1.76864602419534278
 -1.82999747399456170
 -1.88213637762308394
 -1.92472663771859076
 -1.95775066889303750
 -1.98159265998018297
 -1.99711715841410697
 -2.00572456246067565
 -2.00936658441850957
 -2.01051669644461395
 -2.01210630083053621
 -2.01744433879555185
 -2.03013023511341828
 -2.05395428245963885
 -2.09276716022534304
 -2.15029870688530700
 -2.22991644239237674
 -2.33433149626012382
 -2.46527546129175734
 -2.62318088499490898
 -2.80690164168688883
 -3.01351346958019128
 -3.23824133520676671
 -3.47455731211809571
 -3.71446556101911618
 -3.94894369982072613
 -4.16846756442090616
 -4.36353243622204090
 -4.52509980882022589
 -4.64493117966264890
 -4.71580616970535793
 -4.73165159234464028
 -4.68762290551939831
 -4.58017717559333626
 -4.40716014148867163
 -4.16790568256725003
 -3.86332471092667706
 -3.49595247853288127
 -3.06993020699170938
 -2.59091184758842141
 -2.06590002948468943
 -1.50302091120164527
 -0.911248692638634950
 -0.300094733615223652
 0.320713243308419049
 0.941525659916730873
 1.55300246149978105
 2.14625886293415036
 2.71292942541741855
 3.24517935705799587
 3.73570397000870269
 4.17775457523752358
 4.56521166206167628
 4.89270115683973472
 5.15572554481416034
 5.35076824843668231
 5.47533715356811435
 5.52793904660107849
 5.50800379331989198
 5.41578820897446267
 5.25228427379543383
 5.01914672798867834
 4.71864843057762418
 4.35366753749495672
 3.92770703763386253
 3.44494359074283230
 2.91029617625476256
 2.32949424292977447
 1.70911510680711376
 1.05655949668894578
 0.379945105483641410
 -0.312082956226463704
 -1.01060545533482760
 -1.70671109166997037
 -2.39176525295391995
 -3.05762864957428970
 -3.69680832905811885
 -4.30254616313846494
 -4.86885856251713012
 -5.39053431992242071
 -5.86308994331606481
 -6.28268444533341164
 -6.64600590943699387
 -6.95015320386548829
 -7.19254130269725600
 -7.37085785530009296
 -7.48309288795490524
 -7.52764577055965400
 -7.50348957673654837
 -7.41035932542639397
 -7.24893071961221658
 -7.02096028072904765
 -6.72936082165122418
 -6.37819482029641627
 -5.97258634772273123
 -5.51856824529984991
 -5.02288323989724717
 -4.49274976633798673
 -3.93559915595904553
 -3.35879991011848711
 -2.76940410866472275
 -2.17396469873683174
 -1.57846222510429990
 -0.988343224304620849
 -0.408631692801624202
 0.155942773610000224
 0.700845110622249856
 1.22168250831311931
 1.71419460178792282
 2.17426543954454043
 2.59793627250706116
 2.98141503080139980
 3.32110086794040660
 3.61365235903620485
 3.85611648779178084
 4.04610821896770201
 4.18200330540891230
 4.26309479628991017
 4.28967027155505587
 4.26298755882411573
 4.18515494877910132
 4.05894764104109917
 3.88760548747940948
 3.67465705418244726
 3.42380526579827027
 3.13889066083967760
 2.82392173112051825
 2.48313954151522776
 2.12107814763125946
 1.74259241365732565
 1.35283951223041865
 0.957211094628099723
 0.561217584204797504
 0.170324753736999429
 -0.210259931597056582
 -0.575848474830191193
 -0.922558863253029493
 -1.24757863101712685
 -1.54934277452889657
 -1.82757341658511496
 -2.08315989385568034
 -2.31789803627575264
 -2.53414430982884475
 -2.73446339582155673
 -2.92134526500106118
 -3.09703421333816742
 -3.26346048831249291
 -3.42222493845035025
 -3.57458218574072495
 -3.72139546836234114
 -3.86307287464348059
 -3.99951650186101304
 -4.13011364048728602
 -4.25377813205686639
 -4.36902582266922224
 -4.47405579532879738
 -4.56681498024379717
 -4.64504105619354757
 -4.70629484012263610
 -4.74800212015791345
 -4.76752449793415423
 -4.76226893106806148
 -4.72983129054541251
 -4.66815968879259735
 -4.57572142487708788
 -4.45165554979312450
 -4.29588726186502257
 -4.10918006766254962
 -3.89311645567640552
 -3.65002148331876919
 -3.38285977524330139
 -3.09513573775319095
 -2.79081395766064189
 -2.47425995442801439
 -2.15018444555509269
 -1.82356089290803491
 -1.49948391262643699
 -1.18295211456686733
 -0.878589668559948800
 -0.590350412523465762
 -0.321261264077131625
 -0.732550736614320241E-01
 0.152876727650432503
 0.357407728245813294
 0.541500868080280862
 0.706981170004468806
 0.856112097957935747
 0.991415757772115214
 1.11554424896520743
 1.23117687679886578
 1.34090609497748892
 1.44708925564364499
 1.55166795301811988
 1.65597181218387157
 1.76052381820883963
 1.86486134910481827
 1.96739327967718247
 2.06532732014428966
 2.15471215272900363
 2.23063510748852645
 2.28759066112351839
 2.31998965325727902
 2.32273039367763845
 2.29172528727531288
 2.22428501423506653
 2.11930251923018309
 1.97723440730294397
 1.79992658791903204
 1.59035412737351356
 1.35233541535483770
 1.09025109258098074
 0.808772092592624059
 0.512594901257189095
 0.206193199312186687
 -0.106393373076689432
 -0.421711975673962514
 -0.736977748745832995
 -1.05008292573701145
 -1.35954839709892239
 -1.66444497346374520
 -1.96431553667550851
 -2.25912158026110488
 -2.54922173191965795
 -2.83537188656615813
 -3.11872058848313394
 -3.40076294038662708
 -3.68321831292800406
 -3.96781561257425386
 -4.25599798209485591
 -4.54858346997056362
 -4.84543270538166659
 -5.14518020155220146
 -5.44508295950024923
 -5.74102307710841586
 -6.02766868779325282
 -6.29876276274996094
 -6.54749017828510294
 -6.76687539536877125
 -6.95017481877213061
 -7.09123542233418203
 -7.18479229601362057
 -7.22667910174387007
 -7.21393305682272867
 -7.14479057525634342
 -7.01858785561286691
 -6.83559976109745548
 -6.59686510927030234
 -6.30404640538378125
 -5.95935251250237386
 -5.56552476164160748
 -5.12586842423546241
 -4.64430930242646944
 -4.12545942712506886
 -3.57467362366721986
 -2.99807178816468678
 -2.40250289134177564
 -1.79544263109469138
 -1.18484025975618534
 -0.578946989265911371
 0.138418591551001252E-01
 0.585114051459691531
 1.12653749326021924
 1.62993366374447879
 2.08732579465783585
 2.49094739284101729
 2.83319187966956676
 3.10649187890093925
 3.30313250774412559
 3.41502027248336892
 3.43344301368990124
 3.34886325051764677
 3.15078651544732535
 2.82774121472898088
 2.36740144243152306
 1.75687755057136896
 0.983184711503292341
 0.338744103980944469E-01
 -1.10221658440720005
 -2.43416814177889362
 -3.96820142041590929
 -5.70698311293187732
 -7.64904490671595561
 -9.78833569863128083
 -12.1139085251845557
 -14.6097269638578062
 -17.2545606056558185
 -20.0219374527984648
 -22.8801362535991579
 -25.7922201381829694
 -28.7161159810781292
 -31.6047303288946857
 -34.4060804965197988
 -37.0634255842321068
 -39.5154046585049414
 -41.6962108506663185
 -43.5358357193989320
 -44.9604103858189461
 -45.8926627439762242
 -46.2525096581061561
 -45.9578036677053987
 -44.9252509772723272
 -43.0715164101372210
 -40.3145425803765960
 -36.5751430526044103
 -31.7789815773311553
 -25.8591025135035366
 -18.7592062201367646
 -10.4378631709539125
 -0.873847351891235191
 9.92725257949373763
 21.9250433062147181
 35.0349889214119088
 49.1180055404826064
 63.9696701230842706
 79.3103147670347823
 94.7780511422939185
 109.927665854767099
 124.239077992742637
 137.139163466016271
 148.039399378706690
 156.388069662505728
 161.730123466781066
