 0.000000000000000000E+00 -0.131761308787974984E-05
 0.331012037474653908E-02 0.567560847415827441E-05
 0.662183483406764140E-02 0.129583439837303720E-04
 0.993674036189995391E-02 0.211302133631415968E-04
 0.132564397513506016E-01 0.305326133610830120E-04
 0.165825445354421674E-01 0.399878666234403633E-04
 0.199166779494195367E-01 0.496750387887554120E-04
 0.232604779354139701E-01 0.590651254299514911E-04
 0.266156002004951375E-01 0.681191726426241850E-04
 0.299837213394578139E-01 0.766237425675773075E-04
 0.333665420340474306E-01 0.845050080474411770E-04
 0.367657903407625497E-01 0.916702979052574777E-04
 0.401832250798950241E-01 0.980634061156600485E-04
 0.436206393390381475E-01 0.103619998396703092E-03
 0.470798641049610112E-01 0.108275535675793114E-03
 0.505627720384977941E-01 0.111967099632454366E-03
 0.540712814079340465E-01 0.114649415409385485E-03
 0.576073601973068339E-01 0.116304562257776311E-03
 0.611730304070841058E-01 0.116942697386021401E-03
 0.647703725658153040E-01 0.116590784933364637E-03
 0.684015304726404150E-01 0.115277388144616479E-03
 0.720687161919215669E-01 0.113026579304321607E-03
 0.757742153228098125E-01 0.109868277448746363E-03
 0.795203925682432811E-01 0.105855183695628325E-03
 0.833096976297200698E-01 0.101067253970262965E-03
 0.871446714562229552E-01 0.955980071338593824E-04
 0.910279528778730196E-01 0.895370423872960454E-04
 0.949622856573255625E-01 0.829615353048742196E-04
 0.989505259945437921E-01 0.759315473215269694E-04
 0.102995650523479032 0.684813867052811023E-04
 0.107100764842301688 0.606156683654521979E-04
 0.111269112622238708 0.523222203171727542E-04
 0.115504085343779872 0.435924239437551406E-04
 0.119809232712986713 0.344259736784566922E-04
 0.124188273815018180 0.248171211825483131E-04
 0.128645109066618080 0.147505672798548818E-04
 0.133183833034375976 0.423650993349820481E-05
 0.137808748190964891 -0.662014821209349330E-05
 0.142524379687345437 -0.175592944150187748E-04
 0.147335491225083715 -0.281709075752682477E-04
 0.152247102119448030 -0.379912691577803763E-04
 0.157264505650830833 -0.466383359939207248E-04
 0.162393288809196790 -0.538829651520942557E-04
 0.167639353543673986 -0.596023138649828823E-04
 0.173008939636976056 -0.636860330922956407E-04
 0.178508649331902358 -0.660084928492996428E-04
 0.184145473844603558 -0.664642230783913366E-04
 0.189926821906297949 -0.649896917132732185E-04
 0.195860550481423701 -0.616051729412844524E-04
 0.201954997815341208 -0.564982824767615253E-04
 0.208219018968123892 -0.500335929526190732E-04
 0.214662023991960105 -0.426704708057729039E-04
 0.221294018907312928 -0.348721586824757973E-04
 0.228125649626040428 -0.271330293228566454E-04
 0.235168248956668657 -0.200142468192957367E-04
 0.242433886805965448 -0.139426128722595371E-04
 0.249935423659531253 -0.896802321742780012E-05
 0.257686567379129539 -0.485409870632379105E-05
 0.265701933292239012 -0.134682872680502920E-05
 0.273997107464953427 0.175523488934044835E-05
 0.282588712937073661 0.458029038928800960E-05
 0.291494478550786251 0.719778634309607646E-05
 0.300733309812837302 0.970010648742719177E-05
 0.310325360983985998 0.121608563366753528E-04
 0.320292107275887084 0.144917229752519335E-04
 0.330656415639321022 0.162311923208636253E-04
 0.341442612131250156 0.165884799197914254E-04
 0.352676543231464024 0.145191263853222290E-04
 0.364385627720396954 0.967824343461532851E-05
 0.376598894804481832 0.327058947878823851E-05
 0.389347003060644958 -0.279559406997369015E-05
 0.402662233446409612 -0.675971697861344351E-05
 0.416578448072201457 -0.847394581400904022E-05
 0.431131004656285288 -0.905340358795345501E-05
 0.446356614599918045 -0.954905350071617574E-05
 0.462293130484153547 -0.109611331088004447E-04
 0.478979246603053799 -0.133840609998148296E-04
 0.496454094083784270 -0.156267546780766558E-04
 0.514756710468977419 -0.159023972710402437E-04
 0.533925362737153852 -0.144136920203710970E-04
 0.553996703141117930 -0.135346423529735935E-04
 0.575004739633996120 -0.144067413945390828E-04
 0.596979607850977034 -0.155606609422134251E-04
 0.619946140532487755 -0.157635668770299682E-04
 0.643922243792862670 -0.149821513748012909E-04
 0.668917108408850547 -0.133134647975354813E-04
 0.694929308450184635 -0.108306247026973268E-04
 0.721944868322298650 -0.765177284133467225E-05
 0.749935410556105575 -0.505450383211007022E-05
 0.778856526762241597 -0.373226154101521776E-05
 0.808646537709191593 -0.263061347857956222E-05
 0.839225818902016085 -0.168735535582991365E-05
 0.870496858588253319 -0.156838047358330531E-05
 0.902345180596794139 -0.179768339284104195E-05
 0.934641203204055193 -0.177834926681759386E-05
 0.967243021066621855 -0.122472728070660755E-05
 0.999999999999999556 -0.254249465712583945E-06
 1.03275697893337726 0.469699036573176264E-06
 1.06535879679594414 0.336869692930421931E-06
 1.09765481940320497 -0.646692765874208835E-06
 1.12950314141174601 -0.116580231834752117E-05
 1.16077418109798325 -0.199879493102865191E-06
 1.19135346229080774 0.518912100277640963E-06
 1.22114347323775752 -0.155923109411524960E-06
 1.25006458944389376 -0.236790153772785010E-05
 1.27805513167770068 -0.590512531976686345E-05
 1.30507069154981470 -0.104383382629215682E-04
 1.33108289159114879 -0.146108650208765028E-04
 1.35607775620713644 -0.174315086503987235E-04
 1.38005385946751158 -0.185345661879235368E-04
 1.40302039214902230 -0.186510995225669333E-04
 1.42499526036600299 -0.187510522622253944E-04
 1.44600329685888118 -0.202322351455884041E-04
 1.46607463726284526 -0.231134703974733406E-04
 1.48524328953102192 -0.257914523489912122E-04
 1.50354590591621506 -0.255368042675231118E-04
 1.52102075339694531 -0.217621210111475299E-04
 1.53770686951584601 -0.159369446090093845E-04
 1.55364338540008129 -0.980734621811462203E-05
 1.56886899534371382 -0.444218576887061651E-05
 1.58342155192779788 0.910305875537119495E-08
 1.59733776655359017 0.320536807220929047E-05
 1.61065299693935415 0.472111287576653835E-05
 1.62340110519551750 0.452091565364733235E-05
 1.63561437227960260 0.337898842758256196E-05
 1.64732345676853553 0.225989856157563885E-05
 1.65855738786874918 0.146931934005594411E-05
 1.66934358436067853 0.486049158735555051E-06
 1.67970789272411247 -0.148436072567792480E-05
 1.68967463901601400 -0.458385460478771643E-05
 1.69926669018716248 -0.855966620944414692E-05
 1.70850552144921330 -0.131019371506642493E-04
 1.71741128706292590 -0.177734761979049684E-04
 1.72600289253504613 -0.222127047466429743E-04
 1.73429806670776032 -0.263239962287009013E-04
 1.74231343262087002 -0.302252779924833177E-04
 1.75006457634046853 -0.340045298947390647E-04
 1.75756611319403411 -0.376763012008981291E-04
 1.76483175104333090 -0.410933125342772000E-04
 1.77187435037395868 -0.439638287143892994E-04
 1.77870598109268663 -0.461345963034013939E-04
 1.78533797600803945 -0.477882943118542291E-04
 1.79178098103187544 -0.493234611975624216E-04
 1.79804500218465790 -0.510239601574010514E-04
 1.80413944951857586 -0.529059912623365799E-04
 1.81007317809370161 -0.548424143154656850E-04
 1.81585452615539600 -0.567439217476527414E-04
 1.82149135066809720 -0.586605237770641513E-04
 1.82699106036302350 -0.607116729695242048E-04
 1.83236064645632535 -0.629386120559663199E-04
 1.83760671119080277 -0.652498278341208995E-04
 1.84273549434916850 -0.674482305537751903E-04
 1.84775289788055153 -0.692550649301097916E-04
 1.85266450877491584 -0.703256396444260778E-04
 1.85747562031265367 -0.703155682114262141E-04
 1.86219125180903466 -0.689958323632950689E-04
 1.86681616696562358 -0.663344268223809249E-04
 1.87135489093338148 -0.624826829047696824E-04
 1.87581172618498138 -0.576886353938650868E-04
 1.88019076728701284 -0.522046165753765608E-04
 1.88449591465621968 -0.462346974931717179E-04
 1.88873088737776040 -0.399288282653588133E-04
 1.89289923515769787 -0.334090119620673753E-04
 1.89700434947652008 -0.268010123377816817E-04
 1.90104947400545554 -0.202440904813576202E-04
 1.90503771434267422 -0.138718664866077418E-04
 1.90897204712212654 -0.778228423905400525E-05
 1.91285532854377660 -0.202144355755336595E-05
 1.91669030237027949 0.340483768968260672E-05
 1.92047960743175627 0.849617146261793266E-05
 1.92422578467718974 0.132208934555006409E-04
 1.92793128380807777 0.175018845326656395E-04
 1.93159846952735892 0.212295585160790069E-04
 1.93522962743418470 0.242839718650303617E-04
 1.93882696959291567 0.265494879779089142E-04
 1.94239263980269272 0.279237352997011250E-04
 1.94592871859206551 0.283315490272077981E-04
 1.94943722796150132 0.277467886105121805E-04
 1.95292013589503810 0.262134166285464694E-04
 1.95637936066096163 0.238561599042851560E-04
 1.95981677492010453 0.208769577788823764E-04
 1.96323420965923701 0.175396393793410633E-04
 1.96663345796595213 0.141396344510454076E-04
 1.97001627866054196 0.109754965027537827E-04
 1.97338439979950442 0.830652845433764691E-05
 1.97673952206458559 0.634267977992621854E-05
 1.98008332205058002 0.514744930890581002E-05
 1.98341745546455739 0.466086810109014626E-05
 1.98674356024864895 0.456988147095905558E-05
 1.99006325963809938 0.447764099732259046E-05
 1.99337816516593191 0.399489548819173968E-05
 1.99668987962525302 0.258920549050205626E-05
 2.00000000000000000 -0.874804965938085796E-06
